<?xml version="1.0" encoding="UTF-8" standalone="no"?>
<!DOCTYPE svg PUBLIC "-//W3C//DTD SVG 1.1//EN"
 "http://www.w3.org/Graphics/SVG/1.1/DTD/svg11.dtd">
<!-- Generated by graphviz version 2.36.0 (20140111.2315)
 -->
<!-- Title: models_diagram Pages: 1 -->
<svg width="405pt" height="230pt"
 viewBox="0.00 0.00 405.00 230.00" xmlns="http://www.w3.org/2000/svg" xmlns:xlink="http://www.w3.org/1999/xlink">
<g id="graph0" class="graph" transform="scale(1 1) rotate(0) translate(4 226)">
<title>models_diagram</title>
<polygon fill="white" stroke="none" points="-4,4 -4,-226 401,-226 401,4 -4,4"/>
<!-- _diagram_info -->
<g id="node1" class="node"><title>_diagram_info</title>
<text text-anchor="start" x="8" y="-207.6" font-family="Times,serif" font-size="13.00">Models diagram</text>
<text text-anchor="start" x="8" y="-193.6" font-family="Times,serif" font-size="13.00">Date: Aug 20 2014 &#45; 23:56</text>
<text text-anchor="start" x="8" y="-179.6" font-family="Times,serif" font-size="13.00">Migration version: 20140603224612</text>
<text text-anchor="start" x="8" y="-165.6" font-family="Times,serif" font-size="13.00">Generated by RailRoady 1.1.2</text>
<text text-anchor="start" x="8" y="-151.6" font-family="Times,serif" font-size="13.00">http://railroady.prestonlee.com</text>
</g>
<!-- Video -->
<g id="node2" class="node"><title>Video</title>
<ellipse fill="none" stroke="black" cx="270" cy="-18" rx="32.2457" ry="18"/>
<text text-anchor="middle" x="270" y="-14.3" font-family="Times,serif" font-size="14.00">Video</text>
</g>
<!-- Device -->
<g id="node3" class="node"><title>Device</title>
<ellipse fill="none" stroke="black" cx="362" cy="-18" rx="35.6194" ry="18"/>
<text text-anchor="middle" x="362" y="-14.3" font-family="Times,serif" font-size="14.00">Device</text>
</g>
<!-- User -->
<g id="node4" class="node"><title>User</title>
<ellipse fill="none" stroke="black" cx="313" cy="-90" rx="26.949" ry="18"/>
<text text-anchor="middle" x="313" y="-86.3" font-family="Times,serif" font-size="14.00">User</text>
</g>
<!-- User&#45;&gt;Video -->
<g id="edge3" class="edge"><title>User&#45;&gt;Video</title>
<path fill="none" stroke="#327695" d="M298.943,-66.116C294.597,-59.0421 289.789,-51.2151 285.361,-44.0056"/>
<ellipse fill="none" stroke="#327695" cx="301.149" cy="-69.7076" rx="4.00002" ry="4.00002"/>
<polygon fill="#327695" stroke="#327695" points="285.251,-43.8278 283.852,-32.9516 282.634,-39.5674 280.017,-35.307 280.017,-35.307 280.017,-35.307 282.634,-39.5674 276.183,-37.6624 285.251,-43.8278 285.251,-43.8278"/>
</g>
<!-- User&#45;&gt;Device -->
<g id="edge4" class="edge"><title>User&#45;&gt;Device</title>
<path fill="none" stroke="#742f14" d="M328.572,-66.7546C334.011,-58.985 340.129,-50.2439 345.631,-42.3843"/>
<ellipse fill="none" stroke="#742f14" cx="326.169" cy="-70.1878" rx="4.00002" ry="4.00002"/>
<ellipse fill="#742f14" stroke="#742f14" cx="348.179" cy="-38.7441" rx="4.00002" ry="4.00002"/>
</g>
<!-- ActiveRecord::Base -->
<g id="node5" class="node"><title>ActiveRecord::Base</title>
<ellipse fill="none" stroke="black" cx="313" cy="-183" rx="81.3646" ry="18"/>
<text text-anchor="middle" x="313" y="-179.3" font-family="Times,serif" font-size="14.00">ActiveRecord::Base</text>
</g>
<!-- ActiveRecord::Base&#45;&gt;Video -->
<g id="edge1" class="edge"><title>ActiveRecord::Base&#45;&gt;Video</title>
<path fill="none" stroke="black" d="M302.489,-165.081C294.019,-150.53 282.626,-128.679 277,-108 270.368,-83.6225 269.343,-54.2067 269.474,-36.0514"/>
</g>
<!-- ActiveRecord::Base&#45;&gt;Device -->
<g id="edge2" class="edge"><title>ActiveRecord::Base&#45;&gt;Device</title>
<path fill="none" stroke="black" d="M323.159,-164.979C331.414,-150.366 342.689,-128.48 349,-108 356.495,-83.6756 359.716,-54.2453 361.067,-36.0724"/>
</g>
<!-- ActiveRecord::Base&#45;&gt;User -->
<g id="edge5" class="edge"><title>ActiveRecord::Base&#45;&gt;User</title>
<path fill="none" stroke="black" d="M313,-164.884C313,-148.614 313,-124.284 313,-108.04"/>
</g>
</g>
</svg>
